433571 317591 449
100565 225077 386
196582 953024 525
836115 7415 509
750675 907019 525
419199 365760 449
266372 733206 509
512899 650664 509
169435 757715 509
288065 328396 389
930308 540905 525
93407 981753 525
46241 92524 351
49938 422233 449
566140 664531 509
738038 890240 525
248201 518189 470
538669 960294 525
23721 991479 525
173110 763471 509
376881 691417 509
118257 433687 449
228321 28183 386
658368 771496 504
790098 609758 509
181657 373334 443
898175 74131 525
140546 595360 470
700187 995916 525
903579 817765 525
593039 894773 525
57991 862059 525
113362 161937 383
320825 751593 509
50964 6334 324
301974 610003 470
75853 935776 525
420643 330196 449
480498 563198 470
833204 151120 509
747529 242644 509
475862 987980 525
599831 352523 470
404457 648180 509
837116 5808 509
6503 763460 509
70507 530724 470
984245 322503 525
495821 957502 525
301460 433871 449
113181 499715 449
789925 675677 504
988564 17149 525
923631 98046 525
635335 654026 416
405049 967620 525
111652 831908 509
361556 246410 441
281926 75465 443
212009 78510 383
363195 183220 443
700383 731844 504
625380 368042 470
13102 275940 443
162853 735249 509
349095 873645 525
605541 85241 470
292774 291067 340
839711 338446 525
423138 635225 509
937501 176040 525
208284 622806 470
673579 771058 504
913425 686839 525
34095 222501 386
633143 221506 509
709330 952896 525
129709 199245 383
889460 196888 525
917139 774386 525
698805 680662 442
654462 126081 509
969236 593288 525
204311 560459 470
546870 4944 470
373038 151527 443
413156 825529 509
437609 222404 449
363878 385807 423
101072 688357 509
352850 567944 470
964737 234664 525
719890 430442 509
485750 787066 509
149037 802404 509
961152 837926 507
491504 331802 449
91536 480103 449
724927 103876 509
791767 397213 509
404366 319437 441
510828 683402 509
166549 167439 321
793733 19109 509
278221 711986 509
663732 183383 509
128594 773514 509
570009 676160 509
56697 310530 443
277768 44795 443
65808 626397 509
758177 284046 509
704776 337723 509
895091 589208 525
141937 514068 470
578493 459441 470
623887 40963 470
834868 880913 525
312191 803457 509
732115 868665 525
237709 555019 470
341026 288682 384
330350 298888 384
215528 807587 509
805639 64404 509
329182 103775 443
415859 834894 509
24024 699057 509
329275 399773 441
456840 942460 525
946410 666173 525
521977 846862 525
442473 733851 509
296481 399840 441
982628 908610 507
212458 461921 449
76682 950175 525
800779 548234 509
362017 963389 525
87488 897712 525
904476 325650 525
759734 155287 509
441845 464667 444
214806 814566 509
200928 914055 525
733723 728930 380
727928 223072 509
430401 451414 400
60172 306777 443
341518 838567 525
425168 795249 509
215361 425824 449
762957 306657 509
417759 86051 449
839419 868199 419
500601 23510 449
657082 217185 509
403707 893266 525
865588 467184 525
341758 990736 525
289966 11636 443
216918 48067 386
493187 837363 509
577446 886272 525
423063 117150 449
688988 541471 509
126402 527940 470
871891 306407 525
891424 757955 525
526124 196499 470
972895 618329 525
510776 677859 509
256219 892073 525
202870 170680 365
208756 623285 470
318086 199243 443
966275 868789 507
370008 625071 470
671534 127001 509
922048 361279 525
763983 687579 504
449370 282097 449
146582 294985 443
160027 717048 509
269995 358948 441
321585 739009 509
10862 518115 470
385297 507498 449
354908 307166 441
512656 761397 509
795313 183192 509
637989 701365 442
872656 584284 525
847785 175443 525
935634 868404 476
456582 704903 509
122779 179698 383
328264 160554 443
218103 973927 525
505827 123233 449
840118 291209 525
11414 72052 340
732553 359491 509
25995 357098 443
729838 706120 411
840692 990639 507
850044 150125 525
737482 592167 509
671812 14849 509
145320 931921 525
922398 277913 525
652015 353890 509
630856 618555 509
61273 50868 340
219198 291990 443
483696 200274 449
68410 569291 470
457417 456111 356
252869 460529 449
190311 132621 383
168145 751879 509
575004 816340 509
1843 935137 525
797424 754626 468
626196 889514 525
824634 717086 468
474127 893810 525
456118 411988 418
421587 353635 449
863941 90534 525
649981 970883 525
848706 155879 525
506969 10750 449
285584 266090 407
239201 482466 449
469353 612616 470
141405 548458 470
939512 926675 507
529509 34856 470
501874 267001 449
175785 755982 509
725389 968311 525
15402 11250 276
984753 809721 525
386848 260326 441
611185 689346 509
808141 274619 509
14039 419468 449
690480 643052 442
17539 394842 443
947859 244960 525
685541 926904 525
354802 612330 470
132935 896509 525
769609 973056 525
244303 828106 509
995617 153943 525
467488 123029 449
320547 424600 449
414317 509443 444
799821 348467 509
502253 648472 509
471772 177418 449
728800 749245 424
840561 618316 525
425242 855426 525
353423 293813 441
780520 753877 468
654628 862386 525
813016 557794 509
13190 35007 311
156168 981064 525
132870 516653 470
176907 617543 470
468317 91262 449
